…
- Previous computation but grouping by `experiencek`.

``` r
STAR |> group_by(stark, experiencek) |> summarize(med_readk = median(readk, na.rm = TRUE),
med_mathk = median(mathk, na.rm = TRUE)) |>
arrange(desc(med_mathk))
```

    ## `summarise()` has grouped output by 'stark'. You can override using the
    ## `.groups` argument.

    ## # A tibble: 73 × 4
    ## # Groups:   stark [4]
    ##    stark        experiencek med_readk med_mathk
    ##    <fct>              <int>     <dbl>     <dbl>
    ##  1 regular+aide          24      498.       589
    ##  2 regular               19      465        528
    ##  3 regular               24      436        520
    ##  4 small                 18      462        520
    ##  5 regular+aide          18      460        520
    ##  6 small                  4      456        513
    ##  7 regular               20      448.       506
    ##  8 small                 14      456        506
    ##  9 small                 16      467        503
    ## 10 regular               16      445        500
    ## # ℹ 63 more rows
…
- Within each type of STAR class, the mean centered-math-score for each
  level of `experiencek`.

``` r
STAR |> group_by(stark) |> mutate(med_mathk_centered = mathk - median(mathk, na.rm = TRUE)) |>
group_by(experiencek) |>
summarize(avg_med_mathk_centered = mean(med_mathk_centered))
```

    ## # A tibble: 26 × 2
    ##    experiencek avg_med_mathk_centered
    ##          <int>                  <dbl>
    ##  1           0                     NA
    ##  2           1                     NA
    ##  3           2                     NA
    ##  4           3                     NA
    ##  5           4                     NA
    ##  6           5                     NA
    ##  7           6                     NA
    ##  8           7                     NA
    ##  9           8                     NA
    ## 10           9                     NA
    ## # ℹ 16 more rows
…
``` r
# Grade 2 Pass Rate by Teacher's experience level
STAR |> group_by(experience2) |> summarize(pass_rate_math2 = sum(math2 >= 400, na.rm = TRUE)/n(),
pass_rate_read2 = sum(read2 >= 400, na.rm = TRUE)/n())
```

    ## # A tibble: 39 × 3
    ##    experience2 pass_rate_math2 pass_rate_read2
    ##          <int>           <dbl>           <dbl>
    ##  1           0           0.910           0.910
    ##  2           1           0.937           0.937
    ##  3           2           0.826           0.824
    ##  4           3           0.929           0.929
    ##  5           4           0.897           0.885
    ##  6           5           0.931           0.943
    ##  7           6           0.904           0.894
    ##  8           7           0.907           0.913
    ##  9           8           0.910           0.918
    ## 10           9           0.921           0.921
    ## # ℹ 29 more rows
…
    ## # A tibble: 5 × 2
    ##   schoolk    avg_readk
    ##   <fct>          <dbl>
    ## 1 inner-city      428.
    ## 2 suburban        442.
    ## 3 rural           438.
    ## 4 urban           441.
    ## 5 <NA>            NaN

``` r
group_by_column(STAR, degreek) |> count(experiencek)
```

    ## # A tibble: 53 × 3
    ## # Groups:   degreek [5]
    ##    degreek  experiencek     n
    ##    <fct>          <int> <int>
    ##  1 bachelor           0   302
    ##  2 bachelor           1   312
    ##  3 bachelor           2   268
    ##  4 bachelor           3   328
    ##  5 bachelor           4   135
    ##  6 bachelor           5   292
    ##  7 bachelor           6   260
    ##  8 bachelor           7   104
    ##  9 bachelor           8   223
    ## 10 bachelor           9   180
    ## # ℹ 43 more rows
…
